 Tinte & Toner;Sonstige;Sonstiges;953];;
 Tinte & Toner;Sonstige;Heissschrumpfschlauch;952];17%;17%
 Tinte & Toner;Sonstige;Prägeband;951];18%;
 Tinte & Toner;Sonstige;P-Touch;950];20,00%;
 Tinte & Toner;Sonstiges;Fotokartusche;940];18,00%;
 Tinte & Toner;Thermotransfer;Thermo-Transfer-Rolle;932];13,00%;
 Tinte & Toner;Matrix;Typenrad;922];17,00%;
 Tinte & Toner;Thermotransfer;Thermo-Transfer-Band;930];16,00%;
 Tinte & Toner;Thermotransfer;Thermo-Transfer-Film;931];30,00%;
 Tinte & Toner;Matrix;Correctable;921];14,00%;
 Tinte & Toner;Matrix;Farbband / Farbrolle;920];33,00%;
 Tinte & Toner;InkJet;Tintenflasche;914];20,00%;
 Tinte & Toner;InkJet;Druckkopf;913];17,00%;
 Tinte & Toner;InkJet;Festtinte in Color-Stix;912];16,00%;
 Tinte & Toner;InkJet;Tintenpatrone;911];11,00%;
 Tinte & Toner;InkJet;Druckkopfpatrone;910];18,00%;
 Tinte & Toner;Laser / Kopierer;Sonstige;907];21,00%;
 Tinte & Toner;Laser / Kopierer;Fuser;905];13,00%;
 Tinte & Toner;Laser / Kopierer;Resttonerbehälter;904];14,00%;
 Tinte & Toner;Laser / Kopierer;Transfer;903];17,00%;
 Tinte & Toner;Laser / Kopierer;Entwickler;902];14,00%;
 Tinte & Toner;Laser / Kopierer;Drum;901];15,00%;
 Tinte & Toner;Laser / Kopierer;Toner;900];18,00%;
 Technik & Zubehör;Zeitschaltuhren;Zeitschaltuhren;8271];20,00%;
 Technik & Zubehör;Zeitschaltuhren;Sonstiges;8270];32,00%;
 Technik & Zubehör;Zeiterfassungssysteme;Zeiterfassungssysteme;8260];36,00%;
 Technik & Zubehör;Telefone & Mobilfunk;Telefonschwenkarme;8254];20,00%;
 Technik & Zubehör;Telefone & Mobilfunk;Telefone;8253];25,00%;
 Technik & Zubehör;Telefone & Mobilfunk;Sonstiges;8252];39,00%;
 Technik & Zubehör;Telefone & Mobilfunk;Handys;8251];25,00%;
 Technik & Zubehör;Telefone & Mobilfunk;Anrufbeantworter;8250];20,00%;
 Technik & Zubehör;Tastaturen & Mäuse;Tastaturen;8243];28,00%;
 Technik & Zubehör;Tastaturen & Mäuse;Mousepads;8242];27,00%;
 Technik & Zubehör;Tastaturen & Mäuse;Maus;8241];24,00%;
 Technik & Zubehör;Tastaturen & Mäuse;Handgelenkauflagen;8240];25,00%;
 Technik & Zubehör;Taschenlampen;Taschenlampen;8231];28,00%;
 Technik & Zubehör;Taschenlampen;Sonstiges;8230];40,00%;
 Technik & Zubehör;Stromversorgung;Verlängerungskabel;8223];54,00%;
 Technik & Zubehör;Stromversorgung;Steckdosenleisten;8222];23,00%;
 Technik & Zubehör;Stromversorgung;Sonstiges;8221];26,00%;
 Technik & Zubehör;Stromversorgung;Kabeltrommel;8220];24,00%;
 Technik & Zubehör;Sonstiges;USB Stick;8216];27,00%;
 Technik & Zubehör;Sonstiges;Speicherkarten;8215];25,00%;
 Technik & Zubehör;Sonstiges;Sonstiges;8214];30,00%;
 Technik & Zubehör;Sonstiges;Festplatten;8213];29,00%;
 Technik & Zubehör;Sonstiges;CD/DVD Hüllen;8212];30,00%;
 Technik & Zubehör;Sonstiges;CD Rohlinge;8211];21,00%;
 Technik & Zubehör;Sonstiges;Cartridges;8210];19,00%;
 Technik & Zubehör;Schreibmaschinen;Sonstiges;8201];16,00%;
 Technik & Zubehör;Schreibmaschinen;Schreibmaschinen;8200];20,00%;
 Technik & Zubehör;Sonstiges;Tischrechner;8193];23,00%;
 Technik & Zubehör;Sonstiges;Taschenrechner;8192];20,00%;
 Technik & Zubehör;Sonstiges;Tageslichtprojektorwagen;8191];19,00%;
 Technik & Zubehör;Sonstiges;Sonstiges;8190];25,00%;
 Technik & Zubehör;Notebooks & Tablets;Notebooks & Tablets;8180];28,00%;
 Technik & Zubehör;Laminiergeräte & Zubehör;Sonstiges;8172];24,00%;
 Technik & Zubehör;Laminiergeräte & Zubehör;Laminiertaschen;8171];23,00%;
 Technik & Zubehör;Laminiergeräte & Zubehör;Laminiergeräte;8170];21,00%;
 Technik & Zubehör;Sonstiges;Scanner;8160];21,00%;
 Technik & Zubehör;Kassen/ Geldzählsysteme;Sonstiges;8154];13,00%;
 Technik & Zubehör;Kassen/ Geldzählsysteme;Kassen;8153];27,00%;
 Technik & Zubehör;Kassen/ Geldzählsysteme;Geldzählmaschinen;8152];25,00%;
 Technik & Zubehör;Kassen/ Geldzählsysteme;Geldscheinprüfgeräte;8151];26,00%;
 Technik & Zubehör;Kassen/ Geldzählsysteme;Geldkassetten;8150];18,00%;
 Technik & Zubehör;Kartenlesegeräte;Kartenlesegeräte;8140];24,00%;
 Technik & Zubehör;Kameras & Zubehör;Zubehör;8132];18,00%;
 Technik & Zubehör;Kameras & Zubehör;Sonstiges;8131];19,00%;
 Technik & Zubehör;Kameras & Zubehör;Kameras;8130];40,00%;
 Technik & Zubehör;Faxgeräte;Faxgeräte;8120];26,00%;
 Technik & Zubehör;Falzmaschinen;Falzmaschinen;8110];9,00%;
 Technik & Zubehör;EDV-Reinigungsmittel;Sonstiges;8106];14,00%;
 Technik & Zubehör;EDV-Reinigungsmittel;Reinigungstücher;8105];16,00%;
 Technik & Zubehör;EDV-Reinigungsmittel;Reinigungsspray;8104];32,00%;
 Technik & Zubehör;EDV-Reinigungsmittel;Reinigungssets;8103];51,00%;
 Technik & Zubehör;EDV-Reinigungsmittel;Reinigungskarten;8102];19,00%;
 Technik & Zubehör;EDV-Reinigungsmittel;Feinstaubfilter;8101];34,00%;
 Technik & Zubehör;EDV-Reinigungsmittel;Druckluftreiniger;8100];20,00%;
 Technik & Zubehör;EDV-Kabel;USB-Kabel;894];17,00%;
 Technik & Zubehör;EDV-Kabel;Sonstiges;893];29,00%;
 Technik & Zubehör;EDV-Kabel;Monitorkabel;892];36,00%;
 Technik & Zubehör;EDV-Kabel;Kabelentwirrer;891];20,00%;
 Technik & Zubehör;EDV-Kabel;Kabelbinder;890];18,00%;
 Technik & Zubehör;Drucker/ Multifunktionsgeräte;Tintenstrahldrucker;883];30,00%;
 Technik & Zubehör;Drucker/ Multifunktionsgeräte;Sonstiges;882];17,00%;
 Technik & Zubehör;Drucker/ Multifunktionsgeräte;Multifunktionsgeräte;881];17,00%;
 Technik & Zubehör;Drucker/ Multifunktionsgeräte;Laserdrucker;880];16,00%;
 Technik & Zubehör;Diktiergeräte & Zubehör;Zubehör;874];9,00%;
 Technik & Zubehör;Diktiergeräte & Zubehör;Wiedergabegeräte;873];19,00%;
 Technik & Zubehör;Diktiergeräte & Zubehör;Sonstiges;872];23,00%;
 Technik & Zubehör;Diktiergeräte & Zubehör;Digitale Diktiergeräte;871];24,00%;
 Technik & Zubehör;Diktiergeräte & Zubehör;Analoge Diktiergeräte;870];26,00%;
 Technik & Zubehör;Digitalstifte;Digitalstifte;860];18,00%;
 Technik & Zubehör;Computerzubehör;Sonstiges;857];35,00%;
 Technik & Zubehör;Computerzubehör;Software;856];25,00%;
 Technik & Zubehör;Computerzubehör;Lautsprecher;855];24,00%;
 Technik & Zubehör;Computerzubehör;Konzepthalter;854];29,00%;
 Technik & Zubehör;Computerzubehör;Hub;853];31,00%;
 Technik & Zubehör;Computerzubehör;Headsets;852];20,00%;
 Technik & Zubehör;Computerzubehör;Halterungen und Ständer;851];36,00%;
 Technik & Zubehör;Computerzubehör;Bildschirmfilter;850];30,00%;
 Technik & Zubehör;Bindegeräte & Zubehör;Thermobindemappen;845];31,00%;
 Technik & Zubehör;Bindegeräte & Zubehör;Thermobindegeräte;844];20,00%;
 Technik & Zubehör;Bindegeräte & Zubehör;Einbanddeckel;843];27,00%;
 Technik & Zubehör;Bindegeräte & Zubehör;Binderücken;842];25,00%;
 Technik & Zubehör;Bindegeräte & Zubehör;Bindegerätheftstreifen;841];27,00%;
 Technik & Zubehör;Bindegeräte & Zubehör;Bindegeräte;840];23,00%;
 Technik & Zubehör;Beschriftungsgeräte & Zubehör;Sonstiges;836];23,00%;
 Technik & Zubehör;Beschriftungsgeräte & Zubehör;Schriftbandetiketten;835];34,00%;
 Technik & Zubehör;Beschriftungsgeräte & Zubehör;Schriftbänder;834];29,00%;
 Technik & Zubehör;Beschriftungsgeräte & Zubehör;Preisauszeichner Etiketten;833];28,00%;
 Technik & Zubehör;Beschriftungsgeräte & Zubehör;Preisauszeichner;832];30,00%;
 Technik & Zubehör;Beschriftungsgeräte & Zubehör;Netzteile;831];32,00%;
 Technik & Zubehör;Beschriftungsgeräte & Zubehör;Beschriftungsgeräte;830];21,00%;
 Technik & Zubehör;Beamer & Zubehör;Zubehör;823];14,00%;
 Technik & Zubehör;Beamer & Zubehör;Projektionswände;822];26,00%;
 Technik & Zubehör;Beamer & Zubehör;Laserpointer / Zeigestäbe;821];26,00%;
 Technik & Zubehör;Beamer & Zubehör;Beamer / Multimediaprojektor;820];27,00%;
 Technik & Zubehör;Batterien/ Akkus & Zubehör;Sonstiges;814];32,00%;
 Technik & Zubehör;Batterien/ Akkus & Zubehör;Ladegeräte;813];26,00%;
 Technik & Zubehör;Batterien/ Akkus & Zubehör;Knopfzellen;812];22,00%;
 Technik & Zubehör;Batterien/ Akkus & Zubehör;Batterien;811];39,00%;
 Technik & Zubehör;Batterien/ Akkus & Zubehör;Akkus;810];32,00%;
 Technik & Zubehör;Aktenvernichter;Wartungsöl;803];22,00%;
 Technik & Zubehör;Aktenvernichter;Sonstiges;802];21,00%;
 Technik & Zubehör;Aktenvernichter;Auffangbeutel;801];19,00%;
 Technik & Zubehör;Aktenvernichter;Aktenvernichter;800];22,00%;
 Schreiben & Korrigieren;Zeichenbedarf;Zirkel & Zubehör;7134];20,00%;
 Schreiben & Korrigieren;Zeichenbedarf;Zeichenplatten / -schienen;7133];26,00%;
 Schreiben & Korrigieren;Zeichenbedarf;Zeichenköpfe;7132];19,00%;
 Schreiben & Korrigieren;Zeichenbedarf;Tuschefüller;7131];20,00%;
 Schreiben & Korrigieren;Zeichenbedarf;Sonstiges;7130];27,00%;
 Schreiben & Korrigieren;Sonstiges;Tintenrollerminen;7127];19,00%;
 Schreiben & Korrigieren;Sonstiges;Tintenroller;7126];17,00%;
 Schreiben & Korrigieren;Sonstiges;Textstempel;7125];18,00%;
 Schreiben & Korrigieren;Sonstiges;Stempelträger;7124];21,00%;
 Schreiben & Korrigieren;Sonstiges;Sonstiges;7121];19,00%;
 Schreiben & Korrigieren;Sonstiges;Nummernstempel;7120];20,00%;
 Schreiben & Korrigieren;Spitzer;Spitzmaschinen;7114];18,00%;
 Schreiben & Korrigieren;Spitzer;Sonstiges;7113];18,00%;
 Schreiben & Korrigieren;Spitzer;Minenspitzer;7112];20,00%;
 Schreiben & Korrigieren;Spitzer;Bleistiftspitzer;7111];13,00%;
 Schreiben & Korrigieren;Spitzer;Bleistiftspitzdosen;7110];16,00%;
 Schreiben & Korrigieren;Radierer;Sonstiges;7102];18,00%;
 Schreiben & Korrigieren;Radierer;Radierstifte;7101];16,00%;
 Schreiben & Korrigieren;Radierer;Radierer;7100];12,00%;
 Schreiben & Korrigieren;Marker/ Textmarker;Whiteboardmarker;797];20,00%;
 Schreiben & Korrigieren;Marker/ Textmarker;Textmarker;796];26,00%;
 Schreiben & Korrigieren;Marker/ Textmarker;Spezialmarker;795];28,00%;
 Schreiben & Korrigieren;Marker/ Textmarker;Sonstiges;794];21,00%;
 Schreiben & Korrigieren;Marker/ Textmarker;Permanentmarker;793];15,00%;
 Schreiben & Korrigieren;Marker/ Textmarker;Nachfülltusche;792];24,00%;
 Schreiben & Korrigieren;Marker/ Textmarker;Lackmarker;791];21,00%;
 Schreiben & Korrigieren;Marker/ Textmarker;Flipchartmarker;790];21,00%;
 Schreiben & Korrigieren;Lineale;Sonstiges;783];23,00%;
 Schreiben & Korrigieren;Lineale;Lineale;782];27,00%;
 Schreiben & Korrigieren;Lineale;Geometriedreiecke;781];28,00%;
 Schreiben & Korrigieren;Lineale;Dreikantmaßstäbe;780];28,00%;
 Schreiben & Korrigieren;Kugelschreiber & Minen;Sonstiges;775];25,00%;
 Schreiben & Korrigieren;Kugelschreiber & Minen;Multifunktionskugelschreiber;774];50,00%;
 Schreiben & Korrigieren;Kugelschreiber & Minen;Mehrfarbkugelschreiber;773];19,00%;
 Schreiben & Korrigieren;Kugelschreiber & Minen;Kugelschreiberminen;772];29,00%;
 Schreiben & Korrigieren;Kugelschreiber & Minen;Einwegkugelschreiber;771];26,00%;
 Schreiben & Korrigieren;Kugelschreiber & Minen;Dreh- / Druckkugelschreiber;770];16,00%;
 Schreiben & Korrigieren;Sonstiges;Sonstiges;764];20,00%;
 Schreiben & Korrigieren;Sonstiges;Korrekturstifte;763];15,00%;
 Schreiben & Korrigieren;Sonstiges;Korrekturroller;762];17,00%;
 Schreiben & Korrigieren;Sonstiges;Korrekturfluids;761];20,00%;
 Schreiben & Korrigieren;Sonstiges;Abdeckbänder;760];20,00%;
 Schreiben & Korrigieren;Gelschreiber & Minen;Gelroller;751];17,00%;
 Schreiben & Korrigieren;Gelschreiber & Minen;Gelminen;750];22,00%;
 Schreiben & Korrigieren;Füllfederhalter & Zubehör;Tintenlöscher;743];15,00%;
 Schreiben & Korrigieren;Füllfederhalter & Zubehör;Tinte;742];15,00%;
 Schreiben & Korrigieren;Füllfederhalter & Zubehör;Patronen;741];17,00%;
 Schreiben & Korrigieren;Füllfederhalter & Zubehör;Füllfederhalter;740];20,00%;
 Schreiben & Korrigieren;Folienstifte;Folienstifte;730];27,00%;
 Schreiben & Korrigieren;Fineliner;Finelinerminen;721];26,00%;
 Schreiben & Korrigieren;Fineliner;Fineliner;720];19,00%;
 Schreiben & Korrigieren;Fasermaler;Fasermaler;710];29,00%;
 Schreiben & Korrigieren;Bleistifte;Sonstiges;708];23,00%;
 Schreiben & Korrigieren;Bleistifte;Kopierstifte;707];45,00%;
 Schreiben & Korrigieren;Bleistifte;Graphitstifte;706];9,00%;
 Schreiben & Korrigieren;Bleistifte;Feinminen;705];15,00%;
 Schreiben & Korrigieren;Bleistifte;Farbstifte;704];22,00%;
 Schreiben & Korrigieren;Bleistifte;Fallminenstifte;703];20,00%;
 Schreiben & Korrigieren;Bleistifte;Fallminen;702];15,00%;
 Schreiben & Korrigieren;Bleistifte;Druckbleistifte;701];13,00%;
 Schreiben & Korrigieren;Bleistifte;Bleistifte;700];19,00%;
 Präsentation & Planung;Tafeln/ Pinnwände & Zubehör;Whiteboards;6613];21,00%;
 Präsentation & Planung;Tafeln/ Pinnwände & Zubehör;Tafelzubehör;6612];25,00%;
 Präsentation & Planung;Tafeln/ Pinnwände & Zubehör;Tafelreiniger;6611];28,00%;
 Präsentation & Planung;Tafeln/ Pinnwände & Zubehör;Tafelkreide;6610];27,00%;
 Präsentation & Planung;Tafeln/ Pinnwände & Zubehör;Sonstiges;669];17,00%;
 Präsentation & Planung;Tafeln/ Pinnwände & Zubehör;Rastertafeln;668];26,00%;
 Präsentation & Planung;Tafeln/ Pinnwände & Zubehör;Plantafel;667];34,00%;
 Präsentation & Planung;Tafeln/ Pinnwände & Zubehör;Pinnwandnadeln;666];25,00%;
 Präsentation & Planung;Tafeln/ Pinnwände & Zubehör;Pinnwände;665];20,00%;
 Präsentation & Planung;Tafeln/ Pinnwände & Zubehör;Magnetwandleisten;664];30,00%;
 Präsentation & Planung;Tafeln/ Pinnwände & Zubehör;Magnettafeln;663];24,00%;
 Präsentation & Planung;Tafeln/ Pinnwände & Zubehör;Magnete;662];25,00%;
 Präsentation & Planung;Tafeln/ Pinnwände & Zubehör;Landkarten;661];25,00%;
 Präsentation & Planung;Tafeln/ Pinnwände & Zubehör;Kreidetafeln;660];30,00%;
 Präsentation & Planung;Prospekt-/ Infosysteme & Zubehör;Tischaufsteller;6510];21,00%;
 Präsentation & Planung;Prospekt-/ Infosysteme & Zubehör;Sonstiges;659];20,00%;
 Präsentation & Planung;Prospekt-/ Infosysteme & Zubehör;Sichttafelsysteme-Zubehör;658];41,00%;
 Präsentation & Planung;Prospekt-/ Infosysteme & Zubehör;Sichttafelsysteme;657];22,00%;
 Präsentation & Planung;Prospekt-/ Infosysteme & Zubehör;Schaukästen;656];31,00%;
 Präsentation & Planung;Prospekt-/ Infosysteme & Zubehör;Prospekthalter;655];25,00%;
 Präsentation & Planung;Prospekt-/ Infosysteme & Zubehör;Planhalter-Zubehör;654];27,00%;
 Präsentation & Planung;Prospekt-/ Infosysteme & Zubehör;Planhalter;653];20,00%;
 Präsentation & Planung;Prospekt-/ Infosysteme & Zubehör;Kundenstopper-Zubehör;652];19,00%;
 Präsentation & Planung;Prospekt-/ Infosysteme & Zubehör;Kundenstopper;651];21,00%;
 Präsentation & Planung;Prospekt-/ Infosysteme & Zubehör;Dokumentenhalter;650];25,00%;
 Präsentation & Planung;Namensschilder & Zubehör;Namensschilder;642];27,00%;
 Präsentation & Planung;Namensschilder & Zubehör;Einsteckschilder;641];22,00%;
 Präsentation & Planung;Namensschilder & Zubehör;Ausweiszubehör;640];35,00%;
 Präsentation & Planung;Moderationstafeln & Zubehör;Zubehör;636];25,00%;
 Präsentation & Planung;Moderationstafeln & Zubehör;Sonstiges;635];36,00%;
 Präsentation & Planung;Moderationstafeln & Zubehör;Moderationswandtaschen;634];44,00%;
 Präsentation & Planung;Moderationstafeln & Zubehör;Moderationswände;633];20,00%;
 Präsentation & Planung;Moderationstafeln & Zubehör;Moderationspapiere;632];24,00%;
 Präsentation & Planung;Moderationstafeln & Zubehör;Moderationskoffer;631];20,00%;
 Präsentation & Planung;Moderationstafeln & Zubehör;Moderationskarten;630];25,00%;
 Präsentation & Planung;Kalender & Zubehör;Wandkalender;629];19,00%;
 Präsentation & Planung;Kalender & Zubehör;Tischkalender;628];18,00%;
 Präsentation & Planung;Kalender & Zubehör;Terminplaner-Zubehör;627];18,00%;
 Präsentation & Planung;Kalender & Zubehör;Terminplaner-Einlagen;626];40,00%;
 Präsentation & Planung;Kalender & Zubehör;Terminplaner;625];19,00%;
 Präsentation & Planung;Kalender & Zubehör;Taschenkalender;624];18,00%;
 Präsentation & Planung;Kalender & Zubehör;Tafelkalender;623];19,00%;
 Präsentation & Planung;Kalender & Zubehör;Sonstiges;622];15,00%;
 Präsentation & Planung;Kalender & Zubehör;Tafelkalender;623];Löschen;
 Präsentation & Planung;Kalender & Zubehör;Plakatkalender;621];13,00%;
 Präsentation & Planung;Kalender & Zubehör;Buchkalender;620];19,00%;
 Präsentation & Planung;Folien;Präsentationsfolien;610];19,00%;
 Präsentation & Planung;Flipcharts & Zubehör;Sonstiges;602];22,00%;
 Präsentation & Planung;Flipcharts & Zubehör;Flipcharts;601];18,00%;
 Präsentation & Planung;Flipcharts & Zubehör;Flipchartpapier;600];25,00%;
 Papiere & Blöcke;Rollenpapiere;Plotterpapiere;531];20,00%;
 Papiere & Blöcke;Rollenpapiere;Additions- / Kassenrollen / Thermopapiere;530];16,00%;
 Papiere & Blöcke;Papiere;Visitenkarten;5214];22,00%;
 Papiere & Blöcke;Papiere;Transparentpapiere;5213];18,00%;
 Papiere & Blöcke;Papiere;Sonstiges;5212];18,00%;
 Papiere & Blöcke;Papiere;Laserpapiere;5211];21,00%;
 Papiere & Blöcke;Papiere;Kopierpapiere;5210];14,00%;
 Papiere & Blöcke;Papiere;Kohlepapiere;529];Details ;
 Papiere & Blöcke;Papiere;Karten / Grußkarten;528];21,00%;
 Papiere & Blöcke;Papiere;Kanzleipapiere;527];50,00%;
 Papiere & Blöcke;Papiere;Inkjetpapiere;526];18,00%;
 Papiere & Blöcke;Papiere;Fotopapiere;525];18,00%;
 Papiere & Blöcke;Papiere;Elefantenhaut;524];18,00%;
 Papiere & Blöcke;Papiere;Durchschreibepapiere;523];19,00%;
 Papiere & Blöcke;Papiere;Designpapiere;522];18,00%;
 Papiere & Blöcke;Papiere;Computer- / Tabellierpapiere;521];18,00%;
 Papiere & Blöcke;Papiere;Briefpapiere;520];16,00%;
 Papiere & Blöcke;Sonstiges;Haftstreifen;5120];16,00%;
 Papiere & Blöcke;Sonstiges;Haftnotizspender;5119];18,00%;
 Papiere & Blöcke;Sonstiges;Haftnotizen;5118];18,00%;
 Papiere & Blöcke;Sonstiges;Wochenbericht;5117];19,00%;
 Papiere & Blöcke;Sonstiges;Sonstiges;5116];17,00%;
 Papiere & Blöcke;Sonstiges;Reisekostenabrechnung;5115];18,00%;
 Papiere & Blöcke;Sonstiges;Rechnung;5114];19,00%;
 Papiere & Blöcke;Sonstiges;Rapport;5113];18,00%;
 Papiere & Blöcke;Sonstiges;Quittung;5112];18,00%;
 Papiere & Blöcke;Sonstiges;Nummernblock;5111];19,00%;
 Papiere & Blöcke;Sonstiges;Lieferschein;5110];18,00%;
 Papiere & Blöcke;Sonstiges;Kassenabrechnung / -bericht;519];19,00%;
 Papiere & Blöcke;Sonstiges;Inventurbuch;518];19,00%;
 Papiere & Blöcke;Sonstiges;Gesprächsnotiz;517];19,00%;
 Papiere & Blöcke;Sonstiges;Formularvordrucke;516];18,00%;
 Papiere & Blöcke;Sonstiges;Fahrtenbuch;515];19,00%;
 Papiere & Blöcke;Sonstiges;Einnahme- / Ausgabebeleg;514];18,00%;
 Papiere & Blöcke;Sonstiges;Diagrammscheiben;513];Details ;
 Papiere & Blöcke;Sonstiges;Bewirtungskostenbeleg;512];20,00%;
 Papiere & Blöcke;Sonstiges;Bautagesbericht;511];17,00%;
 Papiere & Blöcke;Sonstiges;Auftrag;510];19,00%;
 Papiere & Blöcke;Blöcke/ Notizbücher;Stenoblöcke;5010];18,00%;
 Papiere & Blöcke;Blöcke/ Notizbücher;Spaltenbücher;509];Details ;
 Papiere & Blöcke;Blöcke/ Notizbücher;Sonstiges;508];19,00%;
 Papiere & Blöcke;Blöcke/ Notizbücher;Ringbucheinlagen;507];22,00%;
 Papiere & Blöcke;Blöcke/ Notizbücher;Notizzettel;506];14,00%;
 Papiere & Blöcke;Blöcke/ Notizbücher;Notizklötze;505];15,00%;
 Papiere & Blöcke;Blöcke/ Notizbücher;Notizbücher;504];13,00%;
 Papiere & Blöcke;Blöcke/ Notizbücher;Notizblöcke / Spiralnotizblöcke;503];Details ;
 Papiere & Blöcke;Blöcke/ Notizbücher;Millimeterblöcke;502];15,00%;
 Papiere & Blöcke;Blöcke/ Notizbücher;Collegeblöcke;501];16,00%;
 Papiere & Blöcke;Blöcke/ Notizbücher;Briefblöcke;500];20,00%;
 Ordnen & Registrieren;Visitenkartenablagen;Visitenkartenspender;4124];Details ;
 Ordnen & Registrieren;Visitenkartenablagen;Visitenkartenhüllen;4123];18,00%;
 Ordnen & Registrieren;Visitenkartenablagen;Visitenkartenbücher / -mappen;4122];18,00%;
 Ordnen & Registrieren;Visitenkartenablagen;Sonstiges;4121];19,00%;
 Ordnen & Registrieren;Visitenkartenablagen;Rollkarteien;4120];Details ;
 Ordnen & Registrieren;Schreibtischorganisation;Zettelspieße;41114];19,00%;
 Ordnen & Registrieren;Schreibtischorganisation;Stehsammler;41113];17,00%;
 Ordnen & Registrieren;Schreibtischorganisation;Sortierablagen;41112];18,00%;
 Ordnen & Registrieren;Schreibtischorganisation;Sonstiges;41111];Details ;
 Ordnen & Registrieren;Schreibtischorganisation;Schubladenboxen;41110];Details ;
 Ordnen & Registrieren;Schreibtischorganisation;Schreibunterlagen;4119];19,00%;
 Ordnen & Registrieren;Schreibtischorganisation;Notizzettelboxen;4118];20,00%;
 Ordnen & Registrieren;Schreibtischorganisation;Kugelschreiberständer;4117];17,00%;
 Ordnen & Registrieren;Schreibtischorganisation;Köcher;4116];19,00%;
 Ordnen & Registrieren;Schreibtischorganisation;Büroschalen;4115];18,00%;
 Ordnen & Registrieren;Schreibtischorganisation;Büroklammernspender;4114];19,00%;
 Ordnen & Registrieren;Schreibtischorganisation;Büroklammern;4113];17,00%;
 Ordnen & Registrieren;Schreibtischorganisation;Buchstützen;4112];20,00%;
 Ordnen & Registrieren;Schreibtischorganisation;Briefklemmer;4111];23,00%;
 Ordnen & Registrieren;Schreibtischorganisation;Briefablagen;4110];20,00%;
 Ordnen & Registrieren;Registraturen;Vollsichtreiter;41014];20,00%;
 Ordnen & Registrieren;Registraturen;Sonstiges;41013];18,00%;
 Ordnen & Registrieren;Registraturen;Personalhefter / -mappe;41012];20,00%;
 Ordnen & Registrieren;Registraturen;Pendelhefter;41011];18,00%;
 Ordnen & Registrieren;Registraturen;Hängetaschen;41010];21,00%;
 Ordnen & Registrieren;Registraturen;Hängesammler;4109];20,00%;
 Ordnen & Registrieren;Registraturen;Hängeregistraturwagen;4108];17,00%;
 Ordnen & Registrieren;Registraturen;Hängeordner;4107];19,00%;
 Ordnen & Registrieren;Registraturen;Hängemappenboxen;4106];18,00%;
 Ordnen & Registrieren;Registraturen;Hängemappen;4105];19,00%;
 Ordnen & Registrieren;Registraturen;Hängekörbe;4104];19,00%;
 Ordnen & Registrieren;Registraturen;Hängehefter;4103];19,00%;
 Ordnen & Registrieren;Registraturen;Endlosformularmappen;4102];19,00%;
 Ordnen & Registrieren;Registraturen;Einstellmappen;4101];15,00%;
 Ordnen & Registrieren;Registraturen;Beschriftungsschilder;4100];18,00%;
 Ordnen & Registrieren;Register & Trennblätter;Trennstreifen;493];15,00%;
 Ordnen & Registrieren;Register & Trennblätter;Trennblätter;492];13,00%;
 Ordnen & Registrieren;Register & Trennblätter;Sonstiges;491];15,00%;
 Ordnen & Registrieren;Register & Trennblätter;Register;490];19,00%;
 Ordnen & Registrieren;Ordner & Zubehör;Telefonringbücher;4811];19,00%;
 Ordnen & Registrieren;Ordner & Zubehör;Standard-Ordner;4810];20,00%;
 Ordnen & Registrieren;Ordner & Zubehör;Spezialordner;489];16,00%;
 Ordnen & Registrieren;Ordner & Zubehör;Rückenschilder;488];Details ;
 Ordnen & Registrieren;Ordner & Zubehör;Rückenetiketten;487];22,00%;
 Ordnen & Registrieren;Ordner & Zubehör;Ringbücher;486];20,00%;
 Ordnen & Registrieren;Ordner & Zubehör;Präsentationsringbücher / -ordner;485];17,00%;
 Ordnen & Registrieren;Ordner & Zubehör;Niederhalter;484];17,00%;
 Ordnen & Registrieren;Ordner & Zubehör;Inhaltsschilder;483];15,00%;
 Ordnen & Registrieren;Ordner & Zubehör;Heftstreifen;482];18,00%;
 Ordnen & Registrieren;Ordner & Zubehör;Doppelordner;481];20,00%;
 Ordnen & Registrieren;Ordner & Zubehör;Abheftbügel;480];19,00%;
 Ordnen & Registrieren;Mappen & Zubehör;Vorordner;4719];20,00%;
 Ordnen & Registrieren;Mappen & Zubehör;Unterschriftenmappen;4718];20,00%;
 Ordnen & Registrieren;Mappen & Zubehör;Umlaufmappen;4717];19,00%;
 Ordnen & Registrieren;Mappen & Zubehör;Sichtmappen;4716];22,00%;
 Ordnen & Registrieren;Mappen & Zubehör;Sichtbücher;4715];20,00%;
 Ordnen & Registrieren;Mappen & Zubehör;Sammelmappen;4714];17,00%;
 Ordnen & Registrieren;Mappen & Zubehör;Ringmappen;4713];Details ;
 Ordnen & Registrieren;Mappen & Zubehör;Pultordner;4712];19,00%;
 Ordnen & Registrieren;Mappen & Zubehör;Ordnungsmappen;4711];21,00%;
 Ordnen & Registrieren;Mappen & Zubehör;Klemmschienenhüllen;4710];20,00%;
 Ordnen & Registrieren;Mappen & Zubehör;Klemmschienen;479];19,00%;
 Ordnen & Registrieren;Mappen & Zubehör;Klemmmappen;478];21,00%;
 Ordnen & Registrieren;Mappen & Zubehör;Klemmbretter;477];14,00%;
 Ordnen & Registrieren;Mappen & Zubehör;Jurismappen;476];17,00%;
 Ordnen & Registrieren;Mappen & Zubehör;Fächertaschen;475];17,00%;
 Ordnen & Registrieren;Mappen & Zubehör;Eckspannermappen;474];Details ;
 Ordnen & Registrieren;Mappen & Zubehör;Dokumentenmappen;473];Details ;
 Ordnen & Registrieren;Mappen & Zubehör;Bewerbungsmappen;472];20,00%;
 Ordnen & Registrieren;Mappen & Zubehör;Angebotsmappen;471];19,00%;
 Ordnen & Registrieren;Mappen & Zubehör;Aktendeckel;470];19,00%;
 Ordnen & Registrieren;Locher;Sonstiges;464];17,00%;
 Ordnen & Registrieren;Locher;Registraturlocher;463];20,00%;
 Ordnen & Registrieren;Locher;Mehrfachlocher;462];19,00%;
 Ordnen & Registrieren;Locher;Bürolocher;461];19,00%;
 Ordnen & Registrieren;Locher;Anschlagschienen;460];18,00%;
 Ordnen & Registrieren;Karteien & Zubehör;Karteileitregister;452];24,00%;
 Ordnen & Registrieren;Karteien & Zubehör;Karteikästen;451];17,00%;
 Ordnen & Registrieren;Karteien & Zubehör;Karteikarten;450];18,00%;
 Ordnen & Registrieren;Karteien & Zubehör;Karteikarten;450];19,00%;
 Ordnen & Registrieren;Hüllen;Sonstiges;447];70,00%;
 Ordnen & Registrieren;Hüllen;Sichttaschen;446];20,00%;
 Ordnen & Registrieren;Hüllen;Präsentationshüllen;445];30,00%;
 Ordnen & Registrieren;Hüllen;Kleinkrambeutel;444];17,00%;
 Ordnen & Registrieren;Hüllen;Fotohüllen;443];21,00%;
 Ordnen & Registrieren;Hüllen;Dokumentenhüllen;442];19,00%;
 Ordnen & Registrieren;Hüllen;Diktathüllen;441];39,00%;
 Ordnen & Registrieren;Hüllen;Ausweishüllen;440];17,00%;
 Ordnen & Registrieren;Heftgeräte & Zubehör;Öszangen;437];20,00%;
 Ordnen & Registrieren;Heftgeräte & Zubehör;Ösen;436];19,00%;
 Ordnen & Registrieren;Heftgeräte & Zubehör;Heftzangen;435];21,00%;
 Ordnen & Registrieren;Heftgeräte & Zubehör;Heftklammern;434];20,00%;
 Ordnen & Registrieren;Heftgeräte & Zubehör;Heftgeräte;433];19,00%;
 Ordnen & Registrieren;Heftgeräte & Zubehör;Enthefter;432];19,00%;
 Ordnen & Registrieren;Heftgeräte & Zubehör;Elektroheftgeräte;431];15,00%;
 Ordnen & Registrieren;Heftgeräte & Zubehör;Blockheftgeräte;430];19,00%;
 Ordnen & Registrieren;Hefter;Sonstiges;424];20,00%;
 Ordnen & Registrieren;Hefter;Schnellhefter;423];19,00%;
 Ordnen & Registrieren;Hefter;Ösenhefter;422];17,00%;
 Ordnen & Registrieren;Hefter;Einhakhefter;421];19,00%;
 Ordnen & Registrieren;Hefter;Angebotshefter;420];18,00%;
 Ordnen & Registrieren;Archivierung & Aufbewahrung;Sonstiges;413];14,00%;
 Ordnen & Registrieren;Archivierung & Aufbewahrung;Aufbewahrungsboxen;412];47,00%;
 Ordnen & Registrieren;Archivierung & Aufbewahrung;Archivordner;411];20,00%;
 Ordnen & Registrieren;Archivierung & Aufbewahrung;Archiv-Boxen, -Schachteln;410];17,00%;
 Ordnen & Registrieren;Akten- & Prospekthüllen;Sicht- / Aktenhüllen;401];Details ;
 Ordnen & Registrieren;Akten- & Prospekthüllen;Prospekthüllen;400];20,00%;
 Nützliches im Büro;Werkzeuge;Werkzeuge;3150];19,00%;
 Nützliches im Büro;Sonstiges;Standventilatoren;3144];24,00%;
 Nützliches im Büro;Sonstiges;Sonstiges;3143];25,00%;
 Nützliches im Büro;Sonstiges;Luftreiniger;3142];26,00%;
 Nützliches im Büro;Sonstiges;Transportkarren / -wagen;3141];20,00%;
 Nützliches im Büro;Sonstiges;Sonstiges;3140];36,00%;
 Nützliches im Büro;Taschen, Koffer & Zubehör;Trolleys;31310];Details ;
 Nützliches im Büro;Taschen, Koffer & Zubehör;Tragetaschen;3139];23,00%;
 Nützliches im Büro;Taschen, Koffer & Zubehör;Sonstiges;3137];Details ;
 Nützliches im Büro;Taschen, Koffer & Zubehör;Schreib- / Konferenzmappen;3136];Details ;
 Nützliches im Büro;Taschen, Koffer & Zubehör;Schlamperrollen;3135];20,00%;
 Nützliches im Büro;Taschen, Koffer & Zubehör;Pilotenkoffer;3134];Details ;
 Nützliches im Büro;Taschen, Koffer & Zubehör;Notebooktaschen / -koffer;3133];18,00%;
 Nützliches im Büro;Taschen, Koffer & Zubehör;Geldbörsen;3132];22,00%;
 Nützliches im Büro;Taschen, Koffer & Zubehör;Aktentaschen;3131];45,00%;
 Nützliches im Büro;Taschen, Koffer & Zubehör;Aktenkoffer;3130];20,00%;
 Nützliches im Büro;Süßwaren & Gebäck;Süßigkeiten;3124];19,00%;
 Nützliches im Büro;Süßwaren & Gebäck;Sonstiges;3123];18,00%;
 Nützliches im Büro;Süßwaren & Gebäck;Schokolade;3122];20,00%;
 Nützliches im Büro;Süßwaren & Gebäck;Salzgebäck & Nüsse;3121];19,00%;
 Nützliches im Büro;Süßwaren & Gebäck;Kekse & Gebäck;3120];20,00%;
 Nützliches im Büro;Reinigungsmittel & Reinigungsgeräte;Wischmopp & Zubehör;31124];20,00%;
 Nützliches im Büro;Reinigungsmittel & Reinigungsgeräte;WC-Reiniger;31123];29,00%;
 Nützliches im Büro;Reinigungsmittel & Reinigungsgeräte;Universalreiniger;31122];22,00%;
 Nützliches im Büro;Reinigungsmittel & Reinigungsgeräte;Toilettenbürste;31121];39,00%;
 Nützliches im Büro;Reinigungsmittel & Reinigungsgeräte;Staubsauger & Zubehör;31120];36,00%;
 Nützliches im Büro;Reinigungsmittel & Reinigungsgeräte;Spülmittel;31119];28,00%;
 Nützliches im Büro;Reinigungsmittel & Reinigungsgeräte;Spülmaschinensalz;31118];26,00%;
 Nützliches im Büro;Reinigungsmittel & Reinigungsgeräte;Spülmaschinenreiniger;31117];20,00%;
 Nützliches im Büro;Reinigungsmittel & Reinigungsgeräte;Spülbürste;31116];37,00%;
 Nützliches im Büro;Reinigungsmittel & Reinigungsgeräte;Sonstiges;31115];67,00%;
 Nützliches im Büro;Reinigungsmittel & Reinigungsgeräte;Schwamm;31114];40,00%;
 Nützliches im Büro;Reinigungsmittel & Reinigungsgeräte;Putztücher;31113];51,00%;
 Nützliches im Büro;Reinigungsmittel & Reinigungsgeräte;Nass- / Trockensauger;31112];41,00%;
 Nützliches im Büro;Reinigungsmittel & Reinigungsgeräte;Lufterfrischer;31111];26,00%;
 Nützliches im Büro;Reinigungsmittel & Reinigungsgeräte;Kehrgarnituren;31110];40,00%;
 Nützliches im Büro;Reinigungsmittel & Reinigungsgeräte;Hochdruckreiniger;3119];37,00%;
 Nützliches im Büro;Reinigungsmittel & Reinigungsgeräte;Handschuhe;3118];20,00%;
 Nützliches im Büro;Reinigungsmittel & Reinigungsgeräte;Handkehrmaschine;3117];25,00%;
 Nützliches im Büro;Reinigungsmittel & Reinigungsgeräte;Glasreiniger;3116];25,00%;
 Nützliches im Büro;Reinigungsmittel & Reinigungsgeräte;Fensterwischer;3114];35,00%;
 Nützliches im Büro;Reinigungsmittel & Reinigungsgeräte;Eimer;3113];44,00%;
 Nützliches im Büro;Reinigungsmittel & Reinigungsgeräte;Dampfreiniger;3112];34,00%;
 Nützliches im Büro;Reinigungsmittel & Reinigungsgeräte;Bodenreinigungsmaschinen;3111];18,00%;
 Nützliches im Büro;Reinigungsmittel & Reinigungsgeräte;Besen;3110];24,00%;
 Nützliches im Büro;Ratgeber & Wörterbücher;Wörterbücher;3101];28,00%;
 Nützliches im Büro;Ratgeber & Wörterbücher;Sonstiges;3100];Details ;
 Nützliches im Büro;Lupen;Lupen;390];Details ;
 Nützliches im Büro;Leitern;Leitern;380];20,00%;
 Nützliches im Büro;Küchenzubehör;Sonstiges;372];27,00%;
 Nützliches im Büro;Küchenzubehör;Küchenrollen;371];Details ;
 Nützliches im Büro;Küchenzubehör;Alu- / Frischhaltefolien;370];17,00%;
 Nützliches im Büro;Küchengeräte & Zubehör;Zubehör;366];17,00%;
 Nützliches im Büro;Küchengeräte & Zubehör;Wasserkocher;365];20,00%;
 Nützliches im Büro;Küchengeräte & Zubehör;Sonstiges;364];20,00%;
 Nützliches im Büro;Küchengeräte & Zubehör;Mikrowellengeschirr;363];35,00%;
 Nützliches im Büro;Küchengeräte & Zubehör;Mikrowelle;362];13,00%;
 Nützliches im Büro;Küchengeräte & Zubehör;Kaffee- / Espressomaschinen;361];19,00%;
 Nützliches im Büro;Küchengeräte & Zubehör;Entkalker;360];36,00%;
 Nützliches im Büro;Sonstiges;Tischdecken;359];23,00%;
 Nützliches im Büro;Sonstiges;Tabletts;358];36,00%;
 Nützliches im Büro;Sonstiges;Sonstiges;357];30,00%;
 Nützliches im Büro;Sonstiges;Serviettenhalter;356];30,00%;
 Nützliches im Büro;Sonstiges;Servietten;355];19,00%;
 Nützliches im Büro;Sonstiges;Milch- & Zucker-Sets;354];20,00%;
 Nützliches im Büro;Sonstiges;Körbe;353];19,00%;
 Nützliches im Büro;Sonstiges;Isolierkannen;352];Details ;
 Nützliches im Büro;Sonstiges;Flaschenöffner / Korkenzieher;351];24,00%;
 Nützliches im Büro;Sonstiges;Flaschenkühler;350];33,00%;
 Nützliches im Büro;Kaffee & Tee;Zucker / Süßmittel;347];24,00%;
 Nützliches im Büro;Kaffee & Tee;Tee;346];24,00%;
 Nützliches im Büro;Kaffee & Tee;Sonstiges;345];33,00%;
 Nützliches im Büro;Kaffee & Tee;Milch;344];32,00%;
 Nützliches im Büro;Kaffee & Tee;Kakao;343];20,00%;
 Nützliches im Büro;Kaffee & Tee;Kaffee;342];19,00%;
 Nützliches im Büro;Kaffee & Tee;Getränke;341];20,00%;
 Nützliches im Büro;Kaffee & Tee;Filtertüten;340];23,00%;
 Nützliches im Büro;Hygieneartikel;Toilettenpapierspender;3312];23,00%;
 Nützliches im Büro;Hygieneartikel;Toilettenpapiere;3311];25,00%;
 Nützliches im Büro;Hygieneartikel;Taschentücher;3310];23,00%;
 Nützliches im Büro;Hygieneartikel;Spender;339];20,00%;
 Nützliches im Büro;Hygieneartikel;Sonstiges;338];29,00%;
 Nützliches im Büro;Hygieneartikel;Seifen;337];30,00%;
 Nützliches im Büro;Hygieneartikel;Papierhandtücher;336];25,00%;
 Nützliches im Büro;Hygieneartikel;Kosmetiktücher;335];28,00%;
 Nützliches im Büro;Hygieneartikel;Körperpflege;334];23,00%;
 Nützliches im Büro;Hygieneartikel;Hygienebeutel;333];43,00%;
 Nützliches im Büro;Hygieneartikel;Handtuchspender;332];33,00%;
 Nützliches im Büro;Hygieneartikel;Großputzrollen / -ständer;331];23,00%;
 Nützliches im Büro;Hygieneartikel;Desinfektion;330];24,00%;
 Nützliches im Büro;Geschirr & Besteck;Teller;326];33,00%;
 Nützliches im Büro;Geschirr & Besteck;Tassen / Becher;325];30,00%;
 Nützliches im Büro;Geschirr & Besteck;Sonstiges;324];27,00%;
 Nützliches im Büro;Geschirr & Besteck;Service;323];36,00%;
 Nützliches im Büro;Geschirr & Besteck;Gläser;322];19,00%;
 Nützliches im Büro;Geschirr & Besteck;Einweg-Geschirr;321];33,00%;
 Nützliches im Büro;Geschirr & Besteck;Besteck;320];19,00%;
 Nützliches im Büro;Arbeitsschutz & Erste Hilfe;Wundversorgung;3110];21,00%;
 Nützliches im Büro;Arbeitsschutz & Erste Hilfe;Warnwesten;319];49,00%;
 Nützliches im Büro;Arbeitsschutz & Erste Hilfe;Verbandkästen / -schränke;318];30,00%;
 Nützliches im Büro;Arbeitsschutz & Erste Hilfe;Sonstiges;317];23,00%;
 Nützliches im Büro;Arbeitsschutz & Erste Hilfe;Ruheraumliege;316];38,00%;
 Nützliches im Büro;Arbeitsschutz & Erste Hilfe;Rauchmelder;315];23,00%;
 Nützliches im Büro;Arbeitsschutz & Erste Hilfe;Pflasterspender;314];33,00%;
 Nützliches im Büro;Arbeitsschutz & Erste Hilfe;Markierungsbänder;313];36,00%;
 Nützliches im Büro;Arbeitsschutz & Erste Hilfe;Löschdecken & Zubehör;312];26,00%;
 Nützliches im Büro;Arbeitsschutz & Erste Hilfe;Feuerlöscher;311];20,00%;
 Nützliches im Büro;Arbeitsschutz & Erste Hilfe;Arbeitshandschuhe;310];41,00%;
 Nützliches im Büro;Abfallbehälter & Müllbeutel;Sonstiges;303];40,00%;
 Nützliches im Büro;Abfallbehälter & Müllbeutel;Papierkörbe;302];50,00%;
 Nützliches im Büro;Abfallbehälter & Müllbeutel;Müllbeutel & Müllsäcke;301];28,00%;
 Nützliches im Büro;Abfallbehälter & Müllbeutel;Ascher;300];25,00%;
 Nützliches im Büro;Abfallbehälter & Müllbeutel;Abfalleimer;390];24,00%;
 Kleben & Versenden;Waagen;Sonstiges;282];51,00%;
 Kleben & Versenden;Waagen;Paketwaagen;281];23,00%;
 Kleben & Versenden;Waagen;Briefwaagen;280];19,00%;
 Kleben & Versenden;Versandmittel;Versandtaschen;2711];20,00%;
 Kleben & Versenden;Versandmittel;Versandrollen;2710];Details ;
 Kleben & Versenden;Versandmittel;Versandhülsen;279];15,00%;
 Kleben & Versenden;Versandmittel;Versandboxen;278];Details;
 Kleben & Versenden;Versandmittel;Musterbeutelklammern;277];17,00%;
 Kleben & Versenden;Versandmittel;Musterbeutel;276];21,00%;
 Kleben & Versenden;Versandmittel;Luftpolsterversandtaschen / -folien;275];40,00%;
 Kleben & Versenden;Versandmittel;Faltkartons;274];Details ;
 Kleben & Versenden;Versandmittel;Druckverschlussbeutel;273];Details ;
 Kleben & Versenden;Versandmittel;Dokumententaschen;272];25,00%;
 Kleben & Versenden;Versandmittel;CD/DVD Versandtaschen;271];32,00%;
 Kleben & Versenden;Versandmittel;Briefumschläge;270];21,00%;
 Kleben & Versenden;Verpackungsmittel;Stretchfolien / Handstretchgeräte;269];Details ;
 Kleben & Versenden;Verpackungsmittel;Sonstiges;268];10,00%;
 Kleben & Versenden;Verpackungsmittel;Siegellacke;267];Details ;
 Kleben & Versenden;Verpackungsmittel;Packpapiere;266];20,00%;
 Kleben & Versenden;Verpackungsmittel;Kordeln;265];20,00%;
 Kleben & Versenden;Verpackungsmittel;Gummiringe;264];21,00%;
 Kleben & Versenden;Verpackungsmittel;Gummibänder;263];Details ;
 Kleben & Versenden;Verpackungsmittel;Füllmaterialien;262];16,00%;
 Kleben & Versenden;Verpackungsmittel;Blattwender;261];37,00%;
 Kleben & Versenden;Selbstklebeprodukte;Visitenkartentaschen;255];21,00%;
 Kleben & Versenden;Selbstklebeprodukte;Selbstklebetaschen;254];20,00%;
 Kleben & Versenden;Selbstklebeprodukte;Schutzfolien;253];19,00%;
 Kleben & Versenden;Selbstklebeprodukte;Lochverstärker;252];21,00%;
 Kleben & Versenden;Selbstklebeprodukte;Fotoecken;251];19,00%;
 Kleben & Versenden;Selbstklebeprodukte;Beschriftungsschilder;250];17,00%;
 Kleben & Versenden;Schneiden;Skalpelle & Zubehör;245];18,00%;
 Kleben & Versenden;Schneiden;Schneidematten;244];42,00%;
 Kleben & Versenden;Schneiden;Schneidemaschinen / -zubehör;243];18,00%;
 Kleben & Versenden;Schneiden;Scheren;242];20,00%;
 Kleben & Versenden;Schneiden;Cutter & Zubehör;241];19,00%;
 Kleben & Versenden;Schneiden;Brieföffner;240];27,00%;
 Kleben & Versenden;Packbänder;Sonstiges;232];17,00%;
 Kleben & Versenden;Packbänder;Packbänder;231];30,00%;
 Kleben & Versenden;Packbänder;Packbandabroller;230];20,00%;
 Kleben & Versenden;Klebemittel;Sprühkleber;2210];18,00%;
 Kleben & Versenden;Klebemittel;Sonstiges;229];19,00%;
 Kleben & Versenden;Klebemittel;Sekundenkleber;228];17,00%;
 Kleben & Versenden;Klebemittel;Kontaktkleber;227];17,00%;
 Kleben & Versenden;Klebemittel;Komponentenkleber;226];18,00%;
 Kleben & Versenden;Klebemittel;Klebstoffentferner;225];Details ;
 Kleben & Versenden;Klebemittel;Klebestifte;224];Details ;
 Kleben & Versenden;Klebemittel;Kleberoller;223];22,00%;
 Kleben & Versenden;Klebemittel;Heißkleber;222];23,00%;
 Kleben & Versenden;Klebemittel;Fotokleber;221];20,00%;
 Kleben & Versenden;Klebemittel;Alleskleber;220];17,00%;
 Kleben & Versenden;Klebebänder/ -strips;Tischabroller;217];18,00%;
 Kleben & Versenden;Klebebänder/ -strips;Kreppbänder;216];25,00%;
 Kleben & Versenden;Klebebänder/ -strips;Klettbänder;215];25,00%;
 Kleben & Versenden;Klebebänder/ -strips;Klebepad;214];34,00%;
 Kleben & Versenden;Klebebänder/ -strips;Klebehaken (Powerstrips®);213];23,00%;
 Kleben & Versenden;Klebebänder/ -strips;Klebebänder;212];28,00%;
 Kleben & Versenden;Klebebänder/ -strips;Handabroller;211];28,00%;
 Kleben & Versenden;Klebebänder/ -strips;Gewebebänder;210];23,00%;
 Kleben & Versenden;Etiketten;Vielzwecketiketten;2014];20,00%;
 Kleben & Versenden;Etiketten;Universaletiketten;2013];21,00%;
 Kleben & Versenden;Etiketten;Typenschildetiketten;2012];22,00%;
 Kleben & Versenden;Etiketten;Sonstiges;2011];24,00%;
 Kleben & Versenden;Etiketten;Sicherheitsetiketten;2010];18,00%;
 Kleben & Versenden;Etiketten;Nummernetiketten;209];20,00%;
 Kleben & Versenden;Etiketten;Markierungspunkte;208];17,00%;
 Kleben & Versenden;Etiketten;Frankieretiketten;207];17,00%;
 Kleben & Versenden;Etiketten;Folienetiketten;206];20,00%;
 Kleben & Versenden;Etiketten;Etikettenschutz;205];20,00%;
 Kleben & Versenden;Etiketten;Etikettenlöser;204];19,00%;
 Kleben & Versenden;Etiketten;Diskettenetiketten;203];18,00%;
 Kleben & Versenden;Etiketten;Computeretiketten / Endlosetiketten;202];22,00%;
 Kleben & Versenden;Etiketten;CD/DVD Etiketten;201];24,00%;
 Kleben & Versenden;Etiketten;Adressetiketten;200];23,00%;
 Büroeinrichtung;Uhren;Wanduhren;1121];20,00%;
 Büroeinrichtung;Uhren;Sonstiges;1120];20,00%;
 Büroeinrichtung;Sonstiges;Türstopper;1111];25,00%;
 Büroeinrichtung;Sonstiges;Tresore;1110];21,00%;
 Büroeinrichtung;Stühle;Sonstiges;1104];29,00%;
 Büroeinrichtung;Stühle;Bürostühle-Zubehör;1103];38,00%;
 Büroeinrichtung;Stühle;Bürostühle;1102];28,00%;
 Büroeinrichtung;Stühle;Besucherstühle;1101];35,00%;
 Büroeinrichtung;Stühle;Arbeitsstühle;1100];43,00%;
 Büroeinrichtung;Schränke;Sonstiges;195];28,00%;
 Büroeinrichtung;Schränke;Schubladenschränke;194];46,00%;
 Büroeinrichtung;Schränke;Schränke;193];41,00%;
 Büroeinrichtung;Schränke;Schlüsselschränke & Zubehör;192];41,00%;
 Büroeinrichtung;Schränke;Hängeregistraturschränke;191];25,00%;
 Büroeinrichtung;Schränke;Flügeltürenschränke;190];39,00%;
 Büroeinrichtung;Schilder & Orientierung;Türschilder;181];Details;
 Büroeinrichtung;Schilder & Orientierung;Schilder / Pictos;180];28,00%;
 Büroeinrichtung;Möbel;Stehtische;1710];20,00%;
 Büroeinrichtung;Möbel;Sonstiges;179];33,00%;
 Büroeinrichtung;Möbel;Schreibtische;178];36,00%;
 Büroeinrichtung;Möbel;Schirmständer;177];43,00%;
 Büroeinrichtung;Möbel;Rollcontainer;176];27,00%;
 Büroeinrichtung;Möbel;Regale;175];Details;
 Büroeinrichtung;Möbel;Ordnerdrehsäulen;174];Details;
 Büroeinrichtung;Möbel;Kleiderbügel;173];35,00%;
 Büroeinrichtung;Möbel;Garderoben;172];33,00%;
 Büroeinrichtung;Möbel;EDV-Möbel;171];Details;
 Büroeinrichtung;Möbel;Arbeitstische;170];Details;
 Büroeinrichtung;Leuchten & Leuchtmittel;Tischleuchten;163];Details;
 Büroeinrichtung;Leuchten & Leuchtmittel;Stehleuchten;162];28,00%;
 Büroeinrichtung;Leuchten & Leuchtmittel;Sonstiges;161];30,00%;
 Büroeinrichtung;Leuchten & Leuchtmittel;Leuchtmittel;160];35,00%;
 Büroeinrichtung;Hocker & Rollhocker;Sonstiges;152];28,00%;
 Büroeinrichtung;Hocker & Rollhocker;Rollhocker;151];40,00%;
 Büroeinrichtung;Hocker & Rollhocker;Hocker;150];20,00%;
 Büroeinrichtung;Fußstützen;Fußstützen;140];32,00%;
 Büroeinrichtung;Büromöbelserien;Sonstiges;131];26,00%;
 Büroeinrichtung;Büromöbelserien;Büromöbelserien;130];33,00%;
 Büroeinrichtung;Briefkästen;Sonstiges;121];30,00%;
 Büroeinrichtung;Briefkästen;Briefkästen;120];25,00%;
 Büroeinrichtung;Bodenschutzmatten & Fußmatten;Sonstiges;112];12,00%;
 Büroeinrichtung;Bodenschutzmatten & Fußmatten;Fußmatten;111];56,00%;
 Büroeinrichtung;Bodenschutzmatten & Fußmatten;Bodenschutzmatten;110];23,00%;
 Büroeinrichtung;Bilderrahmen;Bilderrahmen;100];24,00%;
 Sonstiges;Sonstiges;Sonstiges;000];27,00%;
 Sonstiges>Sonstiges>Sonstiges[000];;;;Details;
